{
    "modules":
    {
        "database":
        {
            "name":"DatabaseHCPbs",
            "arguments":
            {
                "data_name":"data_SNR=18"
            }
        },
        "preprocessor":
        {
            "name":"PreprocessorDownsample",
            "arguments":
            {
                "n_shells":3,
                "n_points":90
            }
        }
    }
}
