{
    "modules":
    {
        "database":
        {
            "name":"DatabaseHCPbs",
            "arguments":
            {
                "diff_name": "Diffusion_synthetic_jitter_response",
                "data_name":"data_SNR=18"
            }
        },
        "preprocessor":
        {
            "name":"Preprocessor3DCNN",
            "arguments":
            {
                "n_shells":3,
                "n_points":40
            }
        },
        "estimator":
        {
            "name":"EstimatorCNN3D_fod",
            "arguments":
            {

            }
        }
    }
}
