{
    "modules":
    {
        "database":
        {
            "name":"DatabaseHCPbs",
            "arguments":
            {
                "diff_name": "Diffusion_synthetic_jitter_response",
                "data_name":"data_SNR=18"
            }
        },
        "preprocessor":
        {
            "name":"PreprocessorUnet",
            "arguments":
            {
                "n_shells":3,
                "n_points":20,
                "gt_type": "wm_fod",
                "neighbourhood":0
            }
        },
        "estimator":
        {
            "name":"EstimatorSphericalUNetS2",
            "arguments":
            {
                "ch_out_1":128,
                "sph_ord_c":[2, 0],
                "sph_ord_e":[0, 2, 4, 6, 8, 8]
            }
        }
    }
}
